{
  "configVersion": 2,
  "packages": [
    {
      "name": "async",
      "rootUri": "file:///D:/Programs/flutter_windows_2.10.0-stable/flutter/.pub-cache/hosted/pub.dartlang.org/async-2.8.2",
      "packageUri": "lib/",
      "languageVersion": "2.12"
    },
    {
      "name": "boolean_selector",
      "rootUri": "file:///D:/Programs/flutter_windows_2.10.0-stable/flutter/.pub-cache/hosted/pub.dartlang.org/boolean_selector-2.1.0",
      "packageUri": "lib/",
      "languageVersion": "2.12"
    },
    {
      "name": "characters",
      "rootUri": "file:///D:/Programs/flutter_windows_2.10.0-stable/flutter/.pub-cache/hosted/pub.dartlang.org/characters-1.2.0",
      "packageUri": "lib/",
      "languageVersion": "2.12"
    },
    {
      "name": "charcode",
      "rootUri": "file:///D:/Programs/flutter_windows_2.10.0-stable/flutter/.pub-cache/hosted/pub.dartlang.org/charcode-1.3.1",
      "packageUri": "lib/",
      "languageVersion": "2.12"
    },
    {
      "name": "clock",
      "rootUri": "file:///D:/Programs/flutter_windows_2.10.0-stable/flutter/.pub-cache/hosted/pub.dartlang.org/clock-1.1.0",
      "packageUri": "lib/",
      "languageVersion": "2.12"
    },
    {
      "name": "collection",
      "rootUri": "file:///D:/Programs/flutter_windows_2.10.0-stable/flutter/.pub-cache/hosted/pub.dartlang.org/collection-1.15.0",
      "packageUri": "lib/",
      "languageVersion": "2.12"
    },
    {
      "name": "crypto",
      "rootUri": "file:///D:/Programs/flutter_windows_2.10.0-stable/flutter/.pub-cache/hosted/pub.dartlang.org/crypto-3.0.1",
      "packageUri": "lib/",
      "languageVersion": "2.12"
    },
    {
      "name": "cupertino_icons",
      "rootUri": "file:///D:/Programs/flutter_windows_2.10.0-stable/flutter/.pub-cache/hosted/pub.dartlang.org/cupertino_icons-1.0.4",
      "packageUri": "lib/",
      "languageVersion": "2.12"
    },
    {
      "name": "dio",
      "rootUri": "file:///D:/Programs/flutter_windows_2.10.0-stable/flutter/.pub-cache/hosted/pub.dartlang.org/dio-4.0.6",
      "packageUri": "lib/",
      "languageVersion": "2.12"
    },
    {
      "name": "fake_async",
      "rootUri": "file:///D:/Programs/flutter_windows_2.10.0-stable/flutter/.pub-cache/hosted/pub.dartlang.org/fake_async-1.2.0",
      "packageUri": "lib/",
      "languageVersion": "2.12"
    },
    {
      "name": "ffi",
      "rootUri": "file:///D:/Programs/flutter_windows_2.10.0-stable/flutter/.pub-cache/hosted/pub.dartlang.org/ffi-1.1.2",
      "packageUri": "lib/",
      "languageVersion": "2.12"
    },
    {
      "name": "file",
      "rootUri": "file:///D:/Programs/flutter_windows_2.10.0-stable/flutter/.pub-cache/hosted/pub.dartlang.org/file-6.1.2",
      "packageUri": "lib/",
      "languageVersion": "2.12"
    },
    {
      "name": "flutter",
      "rootUri": "file:///D:/Programs/flutter_windows_2.10.0-stable/flutter/packages/flutter",
      "packageUri": "lib/",
      "languageVersion": "2.12"
    },
    {
      "name": "flutter_cache_manager",
      "rootUri": "file:///D:/Programs/flutter_windows_2.10.0-stable/flutter/.pub-cache/hosted/pub.dartlang.org/flutter_cache_manager-3.3.0",
      "packageUri": "lib/",
      "languageVersion": "2.12"
    },
    {
      "name": "flutter_lints",
      "rootUri": "file:///D:/Programs/flutter_windows_2.10.0-stable/flutter/.pub-cache/hosted/pub.dartlang.org/flutter_lints-1.0.4",
      "packageUri": "lib/",
      "languageVersion": "2.12"
    },
    {
      "name": "flutter_plugin_android_lifecycle",
      "rootUri": "file:///D:/Programs/flutter_windows_2.10.0-stable/flutter/.pub-cache/hosted/pub.dartlang.org/flutter_plugin_android_lifecycle-2.0.5",
      "packageUri": "lib/",
      "languageVersion": "2.12"
    },
    {
      "name": "flutter_polyline_points",
      "rootUri": "file:///D:/Programs/flutter_windows_2.10.0-stable/flutter/.pub-cache/hosted/pub.dartlang.org/flutter_polyline_points-1.0.0",
      "packageUri": "lib/",
      "languageVersion": "2.12"
    },
    {
      "name": "flutter_svg",
      "rootUri": "file:///D:/Programs/flutter_windows_2.10.0-stable/flutter/.pub-cache/hosted/pub.dartlang.org/flutter_svg-0.22.0",
      "packageUri": "lib/",
      "languageVersion": "2.12"
    },
    {
      "name": "flutter_test",
      "rootUri": "file:///D:/Programs/flutter_windows_2.10.0-stable/flutter/packages/flutter_test",
      "packageUri": "lib/",
      "languageVersion": "2.12"
    },
    {
      "name": "flutter_web_plugins",
      "rootUri": "file:///D:/Programs/flutter_windows_2.10.0-stable/flutter/packages/flutter_web_plugins",
      "packageUri": "lib/",
      "languageVersion": "2.12"
    },
    {
      "name": "geolocator",
      "rootUri": "file:///D:/Programs/flutter_windows_2.10.0-stable/flutter/.pub-cache/hosted/pub.dartlang.org/geolocator-8.2.0",
      "packageUri": "lib/",
      "languageVersion": "2.12"
    },
    {
      "name": "geolocator_android",
      "rootUri": "file:///D:/Programs/flutter_windows_2.10.0-stable/flutter/.pub-cache/hosted/pub.dartlang.org/geolocator_android-3.1.4",
      "packageUri": "lib/",
      "languageVersion": "2.12"
    },
    {
      "name": "geolocator_apple",
      "rootUri": "file:///D:/Programs/flutter_windows_2.10.0-stable/flutter/.pub-cache/hosted/pub.dartlang.org/geolocator_apple-2.1.1+1",
      "packageUri": "lib/",
      "languageVersion": "2.12"
    },
    {
      "name": "geolocator_platform_interface",
      "rootUri": "file:///D:/Programs/flutter_windows_2.10.0-stable/flutter/.pub-cache/hosted/pub.dartlang.org/geolocator_platform_interface-4.0.4",
      "packageUri": "lib/",
      "languageVersion": "2.12"
    },
    {
      "name": "geolocator_web",
      "rootUri": "file:///D:/Programs/flutter_windows_2.10.0-stable/flutter/.pub-cache/hosted/pub.dartlang.org/geolocator_web-2.1.4",
      "packageUri": "lib/",
      "languageVersion": "2.12"
    },
    {
      "name": "geolocator_windows",
      "rootUri": "file:///D:/Programs/flutter_windows_2.10.0-stable/flutter/.pub-cache/hosted/pub.dartlang.org/geolocator_windows-0.1.0",
      "packageUri": "lib/",
      "languageVersion": "2.15"
    },
    {
      "name": "google_maps_flutter",
      "rootUri": "file:///D:/Programs/flutter_windows_2.10.0-stable/flutter/.pub-cache/hosted/pub.dartlang.org/google_maps_flutter-2.1.3",
      "packageUri": "lib/",
      "languageVersion": "2.14"
    },
    {
      "name": "google_maps_flutter_platform_interface",
      "rootUri": "file:///D:/Programs/flutter_windows_2.10.0-stable/flutter/.pub-cache/hosted/pub.dartlang.org/google_maps_flutter_platform_interface-2.1.5",
      "packageUri": "lib/",
      "languageVersion": "2.12"
    },
    {
      "name": "http",
      "rootUri": "file:///D:/Programs/flutter_windows_2.10.0-stable/flutter/.pub-cache/hosted/pub.dartlang.org/http-0.13.4",
      "packageUri": "lib/",
      "languageVersion": "2.14"
    },
    {
      "name": "http_parser",
      "rootUri": "file:///D:/Programs/flutter_windows_2.10.0-stable/flutter/.pub-cache/hosted/pub.dartlang.org/http_parser-4.0.0",
      "packageUri": "lib/",
      "languageVersion": "2.12"
    },
    {
      "name": "js",
      "rootUri": "file:///D:/Programs/flutter_windows_2.10.0-stable/flutter/.pub-cache/hosted/pub.dartlang.org/js-0.6.3",
      "packageUri": "lib/",
      "languageVersion": "2.12"
    },
    {
      "name": "lints",
      "rootUri": "file:///D:/Programs/flutter_windows_2.10.0-stable/flutter/.pub-cache/hosted/pub.dartlang.org/lints-1.0.1",
      "packageUri": "lib/",
      "languageVersion": "2.12"
    },
    {
      "name": "marker_icon",
      "rootUri": "file:///D:/Programs/flutter_windows_2.10.0-stable/flutter/.pub-cache/hosted/pub.dartlang.org/marker_icon-0.7.1",
      "packageUri": "lib/",
      "languageVersion": "2.12"
    },
    {
      "name": "matcher",
      "rootUri": "file:///D:/Programs/flutter_windows_2.10.0-stable/flutter/.pub-cache/hosted/pub.dartlang.org/matcher-0.12.11",
      "packageUri": "lib/",
      "languageVersion": "2.12"
    },
    {
      "name": "material_color_utilities",
      "rootUri": "file:///D:/Programs/flutter_windows_2.10.0-stable/flutter/.pub-cache/hosted/pub.dartlang.org/material_color_utilities-0.1.3",
      "packageUri": "lib/",
      "languageVersion": "2.13"
    },
    {
      "name": "meta",
      "rootUri": "file:///D:/Programs/flutter_windows_2.10.0-stable/flutter/.pub-cache/hosted/pub.dartlang.org/meta-1.7.0",
      "packageUri": "lib/",
      "languageVersion": "2.12"
    },
    {
      "name": "nested",
      "rootUri": "file:///D:/Programs/flutter_windows_2.10.0-stable/flutter/.pub-cache/hosted/pub.dartlang.org/nested-1.0.0",
      "packageUri": "lib/",
      "languageVersion": "2.12"
    },
    {
      "name": "path",
      "rootUri": "file:///D:/Programs/flutter_windows_2.10.0-stable/flutter/.pub-cache/hosted/pub.dartlang.org/path-1.8.0",
      "packageUri": "lib/",
      "languageVersion": "2.12"
    },
    {
      "name": "path_drawing",
      "rootUri": "file:///D:/Programs/flutter_windows_2.10.0-stable/flutter/.pub-cache/hosted/pub.dartlang.org/path_drawing-0.5.1+1",
      "packageUri": "lib/",
      "languageVersion": "2.12"
    },
    {
      "name": "path_parsing",
      "rootUri": "file:///D:/Programs/flutter_windows_2.10.0-stable/flutter/.pub-cache/hosted/pub.dartlang.org/path_parsing-0.2.1",
      "packageUri": "lib/",
      "languageVersion": "2.12"
    },
    {
      "name": "path_provider",
      "rootUri": "file:///D:/Programs/flutter_windows_2.10.0-stable/flutter/.pub-cache/hosted/pub.dartlang.org/path_provider-2.0.9",
      "packageUri": "lib/",
      "languageVersion": "2.14"
    },
    {
      "name": "path_provider_android",
      "rootUri": "file:///D:/Programs/flutter_windows_2.10.0-stable/flutter/.pub-cache/hosted/pub.dartlang.org/path_provider_android-2.0.12",
      "packageUri": "lib/",
      "languageVersion": "2.14"
    },
    {
      "name": "path_provider_ios",
      "rootUri": "file:///D:/Programs/flutter_windows_2.10.0-stable/flutter/.pub-cache/hosted/pub.dartlang.org/path_provider_ios-2.0.8",
      "packageUri": "lib/",
      "languageVersion": "2.14"
    },
    {
      "name": "path_provider_linux",
      "rootUri": "file:///D:/Programs/flutter_windows_2.10.0-stable/flutter/.pub-cache/hosted/pub.dartlang.org/path_provider_linux-2.1.5",
      "packageUri": "lib/",
      "languageVersion": "2.12"
    },
    {
      "name": "path_provider_macos",
      "rootUri": "file:///D:/Programs/flutter_windows_2.10.0-stable/flutter/.pub-cache/hosted/pub.dartlang.org/path_provider_macos-2.0.5",
      "packageUri": "lib/",
      "languageVersion": "2.12"
    },
    {
      "name": "path_provider_platform_interface",
      "rootUri": "file:///D:/Programs/flutter_windows_2.10.0-stable/flutter/.pub-cache/hosted/pub.dartlang.org/path_provider_platform_interface-2.0.3",
      "packageUri": "lib/",
      "languageVersion": "2.12"
    },
    {
      "name": "path_provider_windows",
      "rootUri": "file:///D:/Programs/flutter_windows_2.10.0-stable/flutter/.pub-cache/hosted/pub.dartlang.org/path_provider_windows-2.0.5",
      "packageUri": "lib/",
      "languageVersion": "2.12"
    },
    {
      "name": "pedantic",
      "rootUri": "file:///D:/Programs/flutter_windows_2.10.0-stable/flutter/.pub-cache/hosted/pub.dartlang.org/pedantic-1.11.1",
      "packageUri": "lib/",
      "languageVersion": "2.12"
    },
    {
      "name": "petitparser",
      "rootUri": "file:///D:/Programs/flutter_windows_2.10.0-stable/flutter/.pub-cache/hosted/pub.dartlang.org/petitparser-4.4.0",
      "packageUri": "lib/",
      "languageVersion": "2.14"
    },
    {
      "name": "platform",
      "rootUri": "file:///D:/Programs/flutter_windows_2.10.0-stable/flutter/.pub-cache/hosted/pub.dartlang.org/platform-3.1.0",
      "packageUri": "lib/",
      "languageVersion": "2.12"
    },
    {
      "name": "plugin_platform_interface",
      "rootUri": "file:///D:/Programs/flutter_windows_2.10.0-stable/flutter/.pub-cache/hosted/pub.dartlang.org/plugin_platform_interface-2.1.2",
      "packageUri": "lib/",
      "languageVersion": "2.12"
    },
    {
      "name": "process",
      "rootUri": "file:///D:/Programs/flutter_windows_2.10.0-stable/flutter/.pub-cache/hosted/pub.dartlang.org/process-4.2.4",
      "packageUri": "lib/",
      "languageVersion": "2.14"
    },
    {
      "name": "provider",
      "rootUri": "file:///D:/Programs/flutter_windows_2.10.0-stable/flutter/.pub-cache/hosted/pub.dartlang.org/provider-6.0.2",
      "packageUri": "lib/",
      "languageVersion": "2.12"
    },
    {
      "name": "rxdart",
      "rootUri": "file:///D:/Programs/flutter_windows_2.10.0-stable/flutter/.pub-cache/hosted/pub.dartlang.org/rxdart-0.27.3",
      "packageUri": "lib/",
      "languageVersion": "2.12"
    },
    {
      "name": "sky_engine",
      "rootUri": "file:///D:/Programs/flutter_windows_2.10.0-stable/flutter/bin/cache/pkg/sky_engine",
      "packageUri": "lib/",
      "languageVersion": "2.12"
    },
    {
      "name": "source_span",
      "rootUri": "file:///D:/Programs/flutter_windows_2.10.0-stable/flutter/.pub-cache/hosted/pub.dartlang.org/source_span-1.8.1",
      "packageUri": "lib/",
      "languageVersion": "2.12"
    },
    {
      "name": "sqflite",
      "rootUri": "file:///D:/Programs/flutter_windows_2.10.0-stable/flutter/.pub-cache/hosted/pub.dartlang.org/sqflite-2.0.2",
      "packageUri": "lib/",
      "languageVersion": "2.12"
    },
    {
      "name": "sqflite_common",
      "rootUri": "file:///D:/Programs/flutter_windows_2.10.0-stable/flutter/.pub-cache/hosted/pub.dartlang.org/sqflite_common-2.2.1",
      "packageUri": "lib/",
      "languageVersion": "2.16"
    },
    {
      "name": "stack_trace",
      "rootUri": "file:///D:/Programs/flutter_windows_2.10.0-stable/flutter/.pub-cache/hosted/pub.dartlang.org/stack_trace-1.10.0",
      "packageUri": "lib/",
      "languageVersion": "2.12"
    },
    {
      "name": "stream_channel",
      "rootUri": "file:///D:/Programs/flutter_windows_2.10.0-stable/flutter/.pub-cache/hosted/pub.dartlang.org/stream_channel-2.1.0",
      "packageUri": "lib/",
      "languageVersion": "2.12"
    },
    {
      "name": "stream_transform",
      "rootUri": "file:///D:/Programs/flutter_windows_2.10.0-stable/flutter/.pub-cache/hosted/pub.dartlang.org/stream_transform-2.0.0",
      "packageUri": "lib/",
      "languageVersion": "2.12"
    },
    {
      "name": "string_scanner",
      "rootUri": "file:///D:/Programs/flutter_windows_2.10.0-stable/flutter/.pub-cache/hosted/pub.dartlang.org/string_scanner-1.1.0",
      "packageUri": "lib/",
      "languageVersion": "2.12"
    },
    {
      "name": "synchronized",
      "rootUri": "file:///D:/Programs/flutter_windows_2.10.0-stable/flutter/.pub-cache/hosted/pub.dartlang.org/synchronized-3.0.0+2",
      "packageUri": "lib/",
      "languageVersion": "2.14"
    },
    {
      "name": "term_glyph",
      "rootUri": "file:///D:/Programs/flutter_windows_2.10.0-stable/flutter/.pub-cache/hosted/pub.dartlang.org/term_glyph-1.2.0",
      "packageUri": "lib/",
      "languageVersion": "2.12"
    },
    {
      "name": "test_api",
      "rootUri": "file:///D:/Programs/flutter_windows_2.10.0-stable/flutter/.pub-cache/hosted/pub.dartlang.org/test_api-0.4.8",
      "packageUri": "lib/",
      "languageVersion": "2.12"
    },
    {
      "name": "typed_data",
      "rootUri": "file:///D:/Programs/flutter_windows_2.10.0-stable/flutter/.pub-cache/hosted/pub.dartlang.org/typed_data-1.3.0",
      "packageUri": "lib/",
      "languageVersion": "2.12"
    },
    {
      "name": "uuid",
      "rootUri": "file:///D:/Programs/flutter_windows_2.10.0-stable/flutter/.pub-cache/hosted/pub.dartlang.org/uuid-3.0.6",
      "packageUri": "lib/",
      "languageVersion": "2.12"
    },
    {
      "name": "vector_math",
      "rootUri": "file:///D:/Programs/flutter_windows_2.10.0-stable/flutter/.pub-cache/hosted/pub.dartlang.org/vector_math-2.1.1",
      "packageUri": "lib/",
      "languageVersion": "2.14"
    },
    {
      "name": "win32",
      "rootUri": "file:///D:/Programs/flutter_windows_2.10.0-stable/flutter/.pub-cache/hosted/pub.dartlang.org/win32-2.5.1",
      "packageUri": "lib/",
      "languageVersion": "2.15"
    },
    {
      "name": "xdg_directories",
      "rootUri": "file:///D:/Programs/flutter_windows_2.10.0-stable/flutter/.pub-cache/hosted/pub.dartlang.org/xdg_directories-0.2.0+1",
      "packageUri": "lib/",
      "languageVersion": "2.12"
    },
    {
      "name": "xml",
      "rootUri": "file:///D:/Programs/flutter_windows_2.10.0-stable/flutter/.pub-cache/hosted/pub.dartlang.org/xml-5.3.1",
      "packageUri": "lib/",
      "languageVersion": "2.14"
    },
    {
      "name": "amkenah",
      "rootUri": "../",
      "packageUri": "lib/",
      "languageVersion": "2.16"
    }
  ],
  "generated": "2022-04-05T01:56:22.552833Z",
  "generator": "pub",
  "generatorVersion": "2.16.0"
}
